single_cycle.vcd
$date
	Sun May 18 15:42:37 2025
$end
$version
	Icarus Verilog
$end
$timescale
	1s
$end
$scope module single_testbench $end
$var reg 1 ! clk $end
$var reg 1 " rst $end
$scope module solo_main $end
$var wire 3 # ALU_control_wire [2:0] $end
$var wire 32 $ ALUresult [31:0] $end
$var wire 1 % ALUscr $end
$var wire 32 & ImmExt [31:0] $end
$var wire 2 ' ImmScr [1:0] $end
$var wire 1 ( Memwrite $end
$var wire 1 ) PCScr $end
$var wire 32 * PC_top [31:0] $end
$var wire 32 + RESULT [31:0] $end
$var wire 32 , ReadData [31:0] $end
$var wire 1 - RegWrite $end
$var wire 1 . ResultScr $end
$var wire 32 / ScrA [31:0] $end
$var wire 32 0 ScrB [31:0] $end
$var wire 32 1 WriteData [31:0] $end
$var wire 32 2 addedPC [31:0] $end
$var wire 1 3 carry $end
$var wire 1 4 clk $end
$var wire 32 5 instr [31:0] $end
$var wire 1 6 negative $end
$var wire 1 7 overflow $end
$var wire 1 8 rst $end
$var wire 1 9 zero $end
$scope module PC_decide $end
$var wire 32 : PC_next [31:0] $end
$var wire 1 4 clk $end
$var wire 1 8 rst $end
$var reg 32 ; PC [31:0] $end
$upscope $end
$scope module ALU $end
$var wire 32 < A [31:0] $end
$var wire 3 = ALU_control [2:0] $end
$var wire 32 > AandB [31:0] $end
$var wire 32 ? AorB [31:0] $end
$var wire 32 @ B [31:0] $end
$var wire 32 A Sum [31:0] $end
$var wire 1 3 carry $end
$var wire 1 B cout $end
$var wire 32 C mux1 [31:0] $end
$var wire 32 D mux2 [31:0] $end
$var wire 1 6 negative $end
$var wire 1 7 overflow $end
$var wire 32 E result [31:0] $end
$var wire 32 F slt [31:0] $end
$var wire 1 9 zero $end
$upscope $end
$scope module registerbanks $end
$var wire 32 G RD1 [31:0] $end
$var wire 32 H RD2 [31:0] $end
$var wire 1 - WE3 $end
$var wire 32 I WR1 [31:0] $end
$var wire 1 4 clk $end
$var wire 5 J rd [4:0] $end
$var wire 5 K rs1 [4:0] $end
$var wire 5 L rs2 [4:0] $end
$var wire 1 8 rst $end
$upscope $end
$scope module data_mem $end
$var wire 32 M A [31:0] $end
$var wire 32 N RD [31:0] $end
$var wire 32 O WD [31:0] $end
$var wire 1 ( WE $end
$var wire 1 4 clk $end
$var wire 1 8 rst $end
$upscope $end
$scope module sign_extend $end
$var wire 2 P ImmScr [1:0] $end
$var wire 32 Q raw_input [31:0] $end
$var wire 32 R sign_extended [31:0] $end
$var wire 1 S signbit $end
$upscope $end
$scope module instruction_mem $end
$var wire 32 T A [31:0] $end
$var wire 32 U RD [31:0] $end
$var wire 1 8 rst $end
$upscope $end
$scope module PC_adder $end
$var wire 32 V PC_new [31:0] $end
$var wire 32 W PC_now [31:0] $end
$upscope $end
$scope module control_unit $end
$var wire 2 X ALUOp [1:0] $end
$var wire 3 Y ALU_control [2:0] $end
$var wire 1 % ALUscr $end
$var wire 2 Z ImmScr [1:0] $end
$var wire 1 ( Memwrite $end
$var wire 1 ) PCScr $end
$var wire 1 - RegWrite $end
$var wire 1 [ ResultSc $end
$var wire 1 . ResultScr $end
$var wire 3 \ funct3 [2:0] $end
$var wire 7 ] funct7 [6:0] $end
$var wire 7 ^ opcode [6:0] $end
$var wire 1 9 zero $end
$scope module ALU_decoder $end
$var wire 2 _ ALUOp [1:0] $end
$var wire 3 ` ALU_control [2:0] $end
$var wire 3 a funct3 [2:0] $end
$var wire 7 b funct7 [6:0] $end
$var wire 7 c opcode [6:0] $end
$upscope $end
$scope module primary_decoder $end
$var wire 2 d ALUOp [1:0] $end
$var wire 1 % ALUscr $end
$var wire 1 e Branch $end
$var wire 2 f ImmScr [1:0] $end
$var wire 1 ( Memwrite $end
$var wire 1 ) PCScr $end
$var wire 1 - RegWrite $end
$var wire 1 [ ResultScr $end
$var wire 7 g opcode [6:0] $end
$var wire 1 9 zero $end
$upscope $end
$upscope $end
$scope module inpb $end
$var wire 1 % ALUscr $end
$var wire 32 h option1 [31:0] $end
$var wire 32 i option2 [31:0] $end
$var wire 32 j out1 [31:0] $end
$upscope $end
$scope module sel_write $end
$var wire 32 k option1 [31:0] $end
$var wire 32 l option2 [31:0] $end
$var wire 32 m out2 [31:0] $end
$var wire 1 ( select $end
$upscope $end
$upscope $end
$upscope $end
$enddefinitions $end
#0
$dumpvars
b0 m
b0 l
b0 k
b0 j
b0 i
b0 h
b0 g
b0 f
0e
b0 d
b0 c
b0 b
b0 a
b0 `
b0 _
b0 ^
b0 ]
b0 \
0[
b0 Z
b0 Y
b0 X
b0 W
b100 V
b0 U
b0 T
0S
b0 R
b0 Q
b0 P
b0 O
b0 N
b0 M
b0 L
b0 K
b0 J
b0 I
b0 H
b0 G
b0 F
b0 E
b0 D
b0 C
0B
b0 A
b0 @
b0 ?
b0 >
b0 =
b0 <
b0 ;
b100 :
19
08
07
06
b0 5
14
03
b100 2
b0 1
b0 0
b0 /
z.
0-
b0 ,
b0 +
b0 *
0)
0(
b0 '
b0 &
0%
b0 $
b0 #
0"
1!
$end
#50
0!
04
#100
1!
14
#150
x7
x6
x9
bx +
bx I
bx m
b0x F
bx D
bx $
bx E
bx M
bx k
x3
bx C
bx A
xB
bx >
bx ?
bx 0
bx @
bx j
b110111 ^
b110111 c
b110111 g
b110111 ]
b110111 b
b101 \
b101 a
b101 J
bx /
bx <
bx G
bx 1
bx H
bx O
bx h
bx ,
bx N
bx l
b101001010110111 5
b101001010110111 Q
b101001010110111 U
0!
04
1"
18
#200
b1 \
b1 a
b110 J
b1001100110111 5
b1001100110111 Q
b1001100110111 U
b100 ;
b1000 2
b1000 :
b1000 V
b100 *
b100 T
b100 W
1!
14
#250
0!
04
#300
b1 #
b1 =
b1 Y
b1 `
07
06
19
b1 +
b1 I
b1 m
b0 F
b1 D
b1 $
b1 E
b1 M
b1 k
13
b1 A
1B
b11111111111111111111111111111011 C
1-
b10 X
b10 _
b10 d
b100 0
b100 @
b100 j
b100 >
b101 ?
b110 &
b110 R
b110 i
b100 1
b100 H
b100 O
b100 h
b101 /
b101 <
b101 G
b110011 ^
b110011 c
b110011 g
b110011 ]
b110011 b
b0 \
b0 a
b111 J
b110 L
b101 K
b11000101000001110110011 5
b11000101000001110110011 Q
b11000101000001110110011 U
b1000 ;
b1100 2
b1100 :
b1100 V
b1000 *
b1000 T
b1000 W
1!
14
#350
0!
04
#400
03
0B
b100 C
bx +
bx I
bx m
b0 #
b0 =
b0 Y
b0 `
b100 >
b1000 D
b1000 $
b1000 E
b1000 M
b1000 k
0-
b1 '
b1 P
b1 Z
b1 f
1%
b0 X
b0 _
b0 d
b100 0
b100 @
b100 j
b1000 A
b100 ?
b100 &
b100 R
b100 i
1(
b1 1
b1 H
b1 O
b1 h
b100 /
b100 <
b100 G
b100011 ^
b100011 c
b100011 g
b100011 ]
b100011 b
b10 \
b10 a
b100 J
b111 L
b110 K
b11100110010001000100011 5
b11100110010001000100011 Q
b11100110010001000100011 U
b1100 ;
b10000 2
b10000 :
b10000 V
b1100 *
b1100 T
b1100 W
1!
14
#450
0!
04
#500
x7
x6
x9
bx C
bx #
bx =
bx Y
bx `
b0x F
bx D
bx $
bx E
bx M
bx k
x3
bx 0
bx @
bx j
x-
x%
x)
bx A
xB
bx >
bx ?
bx &
bx R
bx i
bx '
bx P
bx Z
bx f
x(
x[
xe
bx X
bx _
bx d
bx 1
bx H
bx O
bx h
bx /
bx <
bx G
xS
bx ^
bx c
bx g
bx ]
bx b
bx \
bx a
bx J
bx L
bx K
bx +
bx I
bx m
bx 5
bx Q
bx U
bx ,
bx N
bx l
b10000 ;
b10100 2
b10100 :
b10100 V
b10000 *
b10000 T
b10000 W
1!
14
#550
0!
04
#600
b10100 ;
b11000 2
b11000 :
b11000 V
b10100 *
b10100 T
b10100 W
1!
14
#650
0!
04
#700
b11000 ;
b11100 2
b11100 :
b11100 V
b11000 *
b11000 T
b11000 W
1!
14
#750
0!
04
#800
b11100 ;
b100000 2
b100000 :
b100000 V
b11100 *
b11100 T
b11100 W
1!
14
#850
0!
04
#900
b100000 ;
b100100 2
b100100 :
b100100 V
b100000 *
b100000 T
b100000 W
1!
14
#950
0!
04
#1000
b100100 ;
b101000 2
b101000 :
b101000 V
b100100 *
b100100 T
b100100 W
1!
14
#1050
0!
04
#1100
b101000 ;
b101100 2
b101100 :
b101100 V
b101000 *
b101000 T
b101000 W
1!
14
#1150
0!
04
#1200
b101100 ;
b110000 2
b110000 :
b110000 V
b101100 *
b101100 T
b101100 W
1!
14
#1250
0!
04
#1300
b110000 ;
b110100 2
b110100 :
b110100 V
b110000 *
b110000 T
b110000 W
1!
14
#1350
0!
04
#1400
b110100 ;
b111000 2
b111000 :
b111000 V
b110100 *
b110100 T
b110100 W
1!
14
#1450
0!
04
#1500
b111000 ;
b111100 2
b111100 :
b111100 V
b111000 *
b111000 T
b111000 W
1!
14
#1550
0!
04
#1600
b111100 ;
b1000000 2
b1000000 :
b1000000 V
b111100 *
b111100 T
b111100 W
1!
14
#1650
0!
04
#1700
b1000000 ;
b1000100 2
b1000100 :
b1000100 V
b1000000 *
b1000000 T
b1000000 W
1!
14
#1750
0!
04
#1800
b1000100 ;
b1001000 2
b1001000 :
b1001000 V
b1000100 *
b1000100 T
b1000100 W
1!
14
#1850
0!
04
#1900
b1001000 ;
b1001100 2
b1001100 :
b1001100 V
b1001000 *
b1001000 T
b1001000 W
1!
14
#1950
0!
04
#2000
b1001100 ;
b1010000 2
b1010000 :
b1010000 V
b1001100 *
b1001100 T
b1001100 W
1!
14
#2050
0!
04
#2100
b1010000 ;
b1010100 2
b1010100 :
b1010100 V
b1010000 *
b1010000 T
b1010000 W
1!
14
#2150
0!
04
#2200
b1010100 ;
b1011000 2
b1011000 :
b1011000 V
b1010100 *
b1010100 T
b1010100 W
1!
14
#2250
0!
04
#2300
b1011000 ;
b1011100 2
b1011100 :
b1011100 V
b1011000 *
b1011000 T
b1011000 W
1!
14
#2350
0!
04
#2400
b1011100 ;
b1100000 2
b1100000 :
b1100000 V
b1011100 *
b1011100 T
b1011100 W
1!
14
#2450
0!
04
#2500
b1100000 ;
b1100100 2
b1100100 :
b1100100 V
b1100000 *
b1100000 T
b1100000 W
1!
14
#2550
0!
04
#2600
b1100100 ;
b1101000 2
b1101000 :
b1101000 V
b1100100 *
b1100100 T
b1100100 W
1!
14
#2650
0!
04
#2700
b1101000 ;
b1101100 2
b1101100 :
b1101100 V
b1101000 *
b1101000 T
b1101000 W
1!
14
#2750
0!
04
#2800
b1101100 ;
b1110000 2
b1110000 :
b1110000 V
b1101100 *
b1101100 T
b1101100 W
1!
14
#2850
0!
04
#2900
b1110000 ;
b1110100 2
b1110100 :
b1110100 V
b1110000 *
b1110000 T
b1110000 W
1!
14
#2950
0!
04
#3000
b1110100 ;
b1111000 2
b1111000 :
b1111000 V
b1110100 *
b1110100 T
b1110100 W
1!
14
#3050
0!
04
#3100
b1111000 ;
b1111100 2
b1111100 :
b1111100 V
b1111000 *
b1111000 T
b1111000 W
1!
14
#3150
0!
04
#3200
b1111100 ;
b10000000 2
b10000000 :
b10000000 V
b1111100 *
b1111100 T
b1111100 W
1!
14
#3250
0!
04
#3300
b10000000 ;
b10000100 2
b10000100 :
b10000100 V
b10000000 *
b10000000 T
b10000000 W
1!
14
#3350
0!
04
#3400
b10000100 ;
b10001000 2
b10001000 :
b10001000 V
b10000100 *
b10000100 T
b10000100 W
1!
14
#3450
0!
04
#3500
b10001000 ;
b10001100 2
b10001100 :
b10001100 V
b10001000 *
b10001000 T
b10001000 W
1!
14
#3550
0!
04
#3600
b10001100 ;
b10010000 2
b10010000 :
b10010000 V
b10001100 *
b10001100 T
b10001100 W
1!
14
#3650
0!
04
#3700
b10010000 ;
b10010100 2
b10010100 :
b10010100 V
b10010000 *
b10010000 T
b10010000 W
1!
14
#3750
0!
04
#3800
b10010100 ;
b10011000 2
b10011000 :
b10011000 V
b10010100 *
b10010100 T
b10010100 W
1!
14
#3850
0!
04
#3900
b10011000 ;
b10011100 2
b10011100 :
b10011100 V
b10011000 *
b10011000 T
b10011000 W
1!
14
#3950
0!
04
#4000
b10011100 ;
b10100000 2
b10100000 :
b10100000 V
b10011100 *
b10011100 T
b10011100 W
1!
14
#4050
0!
04
#4100
b10100000 ;
b10100100 2
b10100100 :
b10100100 V
b10100000 *
b10100000 T
b10100000 W
1!
14
#4150
0!
04
#4200
b10100100 ;
b10101000 2
b10101000 :
b10101000 V
b10100100 *
b10100100 T
b10100100 W
1!
14
#4250
0!
04
#4300
b10101000 ;
b10101100 2
b10101100 :
b10101100 V
b10101000 *
b10101000 T
b10101000 W
1!
14
#4350
0!
04
#4400
b10101100 ;
b10110000 2
b10110000 :
b10110000 V
b10101100 *
b10101100 T
b10101100 W
1!
14
#4450
0!
04
#4500
b10110000 ;
b10110100 2
b10110100 :
b10110100 V
b10110000 *
b10110000 T
b10110000 W
1!
14
#4550
0!
04
#4600
b10110100 ;
b10111000 2
b10111000 :
b10111000 V
b10110100 *
b10110100 T
b10110100 W
1!
14
#4650
0!
04
#4700
b10111000 ;
b10111100 2
b10111100 :
b10111100 V
b10111000 *
b10111000 T
b10111000 W
1!
14
#4750
0!
04
#4800
b10111100 ;
b11000000 2
b11000000 :
b11000000 V
b10111100 *
b10111100 T
b10111100 W
1!
14
#4850
0!
04
#4900
b11000000 ;
b11000100 2
b11000100 :
b11000100 V
b11000000 *
b11000000 T
b11000000 W
1!
14
#4950
0!
04
#5000
b11000100 ;
b11001000 2
b11001000 :
b11001000 V
b11000100 *
b11000100 T
b11000100 W
1!
14
#5050
0!
04
#5100
b11001000 ;
b11001100 2
b11001100 :
b11001100 V
b11001000 *
b11001000 T
b11001000 W
1!
14
#5150
0!
04
#5200
b11001100 ;
b11010000 2
b11010000 :
b11010000 V
b11001100 *
b11001100 T
b11001100 W
1!
14
#5250
0!
04
#5300
b11010000 ;
b11010100 2
b11010100 :
b11010100 V
b11010000 *
b11010000 T
b11010000 W
1!
14
#5350
0!
04
#5400
b11010100 ;
b11011000 2
b11011000 :
b11011000 V
b11010100 *
b11010100 T
b11010100 W
1!
14
#5450
0!
04
#5500
b11011000 ;
b11011100 2
b11011100 :
b11011100 V
b11011000 *
b11011000 T
b11011000 W
1!
14
#5550
0!
04
#5600
b11011100 ;
b11100000 2
b11100000 :
b11100000 V
b11011100 *
b11011100 T
b11011100 W
1!
14
#5650
0!
04
#5700
b11100000 ;
b11100100 2
b11100100 :
b11100100 V
b11100000 *
b11100000 T
b11100000 W
1!
14
#5750
0!
04
#5800
b11100100 ;
b11101000 2
b11101000 :
b11101000 V
b11100100 *
b11100100 T
b11100100 W
1!
14
#5850
0!
04
#5900
b11101000 ;
b11101100 2
b11101100 :
b11101100 V
b11101000 *
b11101000 T
b11101000 W
1!
14
#5950
0!
04
#6000
b11101100 ;
b11110000 2
b11110000 :
b11110000 V
b11101100 *
b11101100 T
b11101100 W
1!
14
#6050
0!
04
#6100
b11110000 ;
b11110100 2
b11110100 :
b11110100 V
b11110000 *
b11110000 T
b11110000 W
1!
14
#6150
0!
04
#6200
b11110100 ;
b11111000 2
b11111000 :
b11111000 V
b11110100 *
b11110100 T
b11110100 W
1!
14
#6250
0!
04
#6300
b11111000 ;
b11111100 2
b11111100 :
b11111100 V
b11111000 *
b11111000 T
b11111000 W
1!
14
#6350
0!
04
#6400
b11111100 ;
b100000000 2
b100000000 :
b100000000 V
b11111100 *
b11111100 T
b11111100 W
1!
14
#6450
0!
04
#6500
b100000000 ;
b100000100 2
b100000100 :
b100000100 V
b100000000 *
b100000000 T
b100000000 W
1!
14
#6550
0!
04
#6600
b100000100 ;
b100001000 2
b100001000 :
b100001000 V
b100000100 *
b100000100 T
b100000100 W
1!
14
#6650
0!
04
#6700
b100001000 ;
b100001100 2
b100001100 :
b100001100 V
b100001000 *
b100001000 T
b100001000 W
1!
14
#6750
0!
04
#6800
b100001100 ;
b100010000 2
b100010000 :
b100010000 V
b100001100 *
b100001100 T
b100001100 W
1!
14
#6850
0!
04
#6900
b100010000 ;
b100010100 2
b100010100 :
b100010100 V
b100010000 *
b100010000 T
b100010000 W
1!
14
#6950
0!
04
#7000
b100010100 ;
b100011000 2
b100011000 :
b100011000 V
b100010100 *
b100010100 T
b100010100 W
1!
14
#7050
0!
04
#7100
b100011000 ;
b100011100 2
b100011100 :
b100011100 V
b100011000 *
b100011000 T
b100011000 W
1!
14
#7150
0!
04
#7200
b100011100 ;
b100100000 2
b100100000 :
b100100000 V
b100011100 *
b100011100 T
b100011100 W
1!
14
#7250
0!
04
#7300
b100100000 ;
b100100100 2
b100100100 :
b100100100 V
b100100000 *
b100100000 T
b100100000 W
1!
14
#7350
0!
04
#7400
b100100100 ;
b100101000 2
b100101000 :
b100101000 V
b100100100 *
b100100100 T
b100100100 W
1!
14
#7450
0!
04
#7500
b100101000 ;
b100101100 2
b100101100 :
b100101100 V
b100101000 *
b100101000 T
b100101000 W
1!
14
#7550
0!
04
#7600
b100101100 ;
b100110000 2
b100110000 :
b100110000 V
b100101100 *
b100101100 T
b100101100 W
1!
14
#7650
0!
04
#7700
b100110000 ;
b100110100 2
b100110100 :
b100110100 V
b100110000 *
b100110000 T
b100110000 W
1!
14
#7750
0!
04
#7800
b100110100 ;
b100111000 2
b100111000 :
b100111000 V
b100110100 *
b100110100 T
b100110100 W
1!
14
#7850
0!
04
#7900
b100111000 ;
b100111100 2
b100111100 :
b100111100 V
b100111000 *
b100111000 T
b100111000 W
1!
14
#7950
0!
04
#8000
b100111100 ;
b101000000 2
b101000000 :
b101000000 V
b100111100 *
b100111100 T
b100111100 W
1!
14
#8050
0!
04
#8100
b101000000 ;
b101000100 2
b101000100 :
b101000100 V
b101000000 *
b101000000 T
b101000000 W
1!
14
#8150
0!
04
#8200
b101000100 ;
b101001000 2
b101001000 :
b101001000 V
b101000100 *
b101000100 T
b101000100 W
1!
14
#8250
0!
04
#8300
b101001000 ;
b101001100 2
b101001100 :
b101001100 V
b101001000 *
b101001000 T
b101001000 W
1!
14
#8350
0!
04
#8400
b101001100 ;
b101010000 2
b101010000 :
b101010000 V
b101001100 *
b101001100 T
b101001100 W
1!
14
#8450
0!
04
#8500
b101010000 ;
b101010100 2
b101010100 :
b101010100 V
b101010000 *
b101010000 T
b101010000 W
1!
14
#8550
0!
04
#8600
b101010100 ;
b101011000 2
b101011000 :
b101011000 V
b101010100 *
b101010100 T
b101010100 W
1!
14
#8650
0!
04
#8700
b101011000 ;
b101011100 2
b101011100 :
b101011100 V
b101011000 *
b101011000 T
b101011000 W
1!
14
#8750
0!
04
#8800
b101011100 ;
b101100000 2
b101100000 :
b101100000 V
b101011100 *
b101011100 T
b101011100 W
1!
14
#8850
0!
04
#8900
b101100000 ;
b101100100 2
b101100100 :
b101100100 V
b101100000 *
b101100000 T
b101100000 W
1!
14
#8950
0!
04
#9000
b101100100 ;
b101101000 2
b101101000 :
b101101000 V
b101100100 *
b101100100 T
b101100100 W
1!
14
#9050
0!
04
#9100
b101101000 ;
b101101100 2
b101101100 :
b101101100 V
b101101000 *
b101101000 T
b101101000 W
1!
14
#9150
0!
04
#9200
b101101100 ;
b101110000 2
b101110000 :
b101110000 V
b101101100 *
b101101100 T
b101101100 W
1!
14
#9250
0!
04
#9300
b101110000 ;
b101110100 2
b101110100 :
b101110100 V
b101110000 *
b101110000 T
b101110000 W
1!
14
#9350
0!
04
#9400
b101110100 ;
b101111000 2
b101111000 :
b101111000 V
b101110100 *
b101110100 T
b101110100 W
1!
14
#9450
0!
04
#9500
b101111000 ;
b101111100 2
b101111100 :
b101111100 V
b101111000 *
b101111000 T
b101111000 W
1!
14
#9550
0!
04
#9600
b101111100 ;
b110000000 2
b110000000 :
b110000000 V
b101111100 *
b101111100 T
b101111100 W
1!
14
#9650
0!
04
#9700
b110000000 ;
b110000100 2
b110000100 :
b110000100 V
b110000000 *
b110000000 T
b110000000 W
1!
14
#9750
0!
04
#9800
b110000100 ;
b110001000 2
b110001000 :
b110001000 V
b110000100 *
b110000100 T
b110000100 W
1!
14
#9850
0!
04
#9900
b110001000 ;
b110001100 2
b110001100 :
b110001100 V
b110001000 *
b110001000 T
b110001000 W
1!
14
#9950
0!
04
#10000
b110001100 ;
b110010000 2
b110010000 :
b110010000 V
b110001100 *
b110001100 T
b110001100 W
1!
14
#10050
0!
04
#10100
b110010000 ;
b110010100 2
b110010100 :
b110010100 V
b110010000 *
b110010000 T
b110010000 W
1!
14
#10150
0!
04
#10200
b110010100 ;
b110011000 2
b110011000 :
b110011000 V
b110010100 *
b110010100 T
b110010100 W
1!
14
#10250
0!
04
#10300
b110011000 ;
b110011100 2
b110011100 :
b110011100 V
b110011000 *
b110011000 T
b110011000 W
1!
14
#10350
0!
04
#10400
b110011100 ;
b110100000 2
b110100000 :
b110100000 V
b110011100 *
b110011100 T
b110011100 W
1!
14
#10450
0!
04
#10500
b110100000 ;
b110100100 2
b110100100 :
b110100100 V
b110100000 *
b110100000 T
b110100000 W
1!
14
#10550
0!
04
#10600
b110100100 ;
b110101000 2
b110101000 :
b110101000 V
b110100100 *
b110100100 T
b110100100 W
1!
14
#10650
0!
04
#10700
b110101000 ;
b110101100 2
b110101100 :
b110101100 V
b110101000 *
b110101000 T
b110101000 W
1!
14
#10750
0!
04
#10800
b110101100 ;
b110110000 2
b110110000 :
b110110000 V
b110101100 *
b110101100 T
b110101100 W
1!
14
#10850
0!
04
#10900
b110110000 ;
b110110100 2
b110110100 :
b110110100 V
b110110000 *
b110110000 T
b110110000 W
1!
14
#10950
0!
04
#11000
b110110100 ;
b110111000 2
b110111000 :
b110111000 V
b110110100 *
b110110100 T
b110110100 W
1!
14
#11050
0!
04
#11100
b110111000 ;
b110111100 2
b110111100 :
b110111100 V
b110111000 *
b110111000 T
b110111000 W
1!
14
#11150
0!
04
#11200
b110111100 ;
b111000000 2
b111000000 :
b111000000 V
b110111100 *
b110111100 T
b110111100 W
1!
14
#11250
0!
04
#11300
b111000000 ;
b111000100 2
b111000100 :
b111000100 V
b111000000 *
b111000000 T
b111000000 W
1!
14
#11350
0!
04
#11400
b111000100 ;
b111001000 2
b111001000 :
b111001000 V
b111000100 *
b111000100 T
b111000100 W
1!
14
#11450
0!
04
#11500
b111001000 ;
b111001100 2
b111001100 :
b111001100 V
b111001000 *
b111001000 T
b111001000 W
1!
14
#11550
0!
04
#11600
b111001100 ;
b111010000 2
b111010000 :
b111010000 V
b111001100 *
b111001100 T
b111001100 W
1!
14
#11650
0!
04
#11700
b111010000 ;
b111010100 2
b111010100 :
b111010100 V
b111010000 *
b111010000 T
b111010000 W
1!
14
#11750
0!
04
#11800
b111010100 ;
b111011000 2
b111011000 :
b111011000 V
b111010100 *
b111010100 T
b111010100 W
1!
14
#11850
0!
04
#11900
b111011000 ;
b111011100 2
b111011100 :
b111011100 V
b111011000 *
b111011000 T
b111011000 W
1!
14
#11950
0!
04
#12000
b111011100 ;
b111100000 2
b111100000 :
b111100000 V
b111011100 *
b111011100 T
b111011100 W
1!
14
#12050
0!
04
#12100
b111100000 ;
b111100100 2
b111100100 :
b111100100 V
b111100000 *
b111100000 T
b111100000 W
1!
14
#12150
0!
04
#12200
b111100100 ;
b111101000 2
b111101000 :
b111101000 V
b111100100 *
b111100100 T
b111100100 W
1!
14
#12250
0!
04
#12300
b111101000 ;
b111101100 2
b111101100 :
b111101100 V
b111101000 *
b111101000 T
b111101000 W
1!
14
#12350
0!
04
#12400
b111101100 ;
b111110000 2
b111110000 :
b111110000 V
b111101100 *
b111101100 T
b111101100 W
1!
14
#12450
0!
04
#12500
b111110000 ;
b111110100 2
b111110100 :
b111110100 V
b111110000 *
b111110000 T
b111110000 W
1!
14
#12550
0!
04
#12600
b111110100 ;
b111111000 2
b111111000 :
b111111000 V
b111110100 *
b111110100 T
b111110100 W
1!
14
#12650
0!
04
#12700
b111111000 ;
b111111100 2
b111111100 :
b111111100 V
b111111000 *
b111111000 T
b111111000 W
1!
14
#12750
0!
04
#12800
b111111100 ;
b1000000000 2
b1000000000 :
b1000000000 V
b111111100 *
b111111100 T
b111111100 W
1!
14
#12850
0!
04
#12900
b1000000000 ;
b1000000100 2
b1000000100 :
b1000000100 V
b1000000000 *
b1000000000 T
b1000000000 W
1!
14
#12950
0!
04
#13000
b1000000100 ;
b1000001000 2
b1000001000 :
b1000001000 V
b1000000100 *
b1000000100 T
b1000000100 W
1!
14
#13050
0!
04
#13100
b1000001000 ;
b1000001100 2
b1000001100 :
b1000001100 V
b1000001000 *
b1000001000 T
b1000001000 W
1!
14
#13150
0!
04
#13200
b1000001100 ;
b1000010000 2
b1000010000 :
b1000010000 V
b1000001100 *
b1000001100 T
b1000001100 W
1!
14
#13250
0!
04
#13300
b1000010000 ;
b1000010100 2
b1000010100 :
b1000010100 V
b1000010000 *
b1000010000 T
b1000010000 W
1!
14
#13350
0!
04
#13400
b1000010100 ;
b1000011000 2
b1000011000 :
b1000011000 V
b1000010100 *
b1000010100 T
b1000010100 W
1!
14
#13450
0!
04
#13500
b1000011000 ;
b1000011100 2
b1000011100 :
b1000011100 V
b1000011000 *
b1000011000 T
b1000011000 W
1!
14
#13550
0!
04
#13600
b1000011100 ;
b1000100000 2
b1000100000 :
b1000100000 V
b1000011100 *
b1000011100 T
b1000011100 W
1!
14
#13650
0!
04
#13700
b1000100000 ;
b1000100100 2
b1000100100 :
b1000100100 V
b1000100000 *
b1000100000 T
b1000100000 W
1!
14
#13750
0!
04
#13800
b1000100100 ;
b1000101000 2
b1000101000 :
b1000101000 V
b1000100100 *
b1000100100 T
b1000100100 W
1!
14
#13850
0!
04
#13900
b1000101000 ;
b1000101100 2
b1000101100 :
b1000101100 V
b1000101000 *
b1000101000 T
b1000101000 W
1!
14
#13950
0!
04
#14000
b1000101100 ;
b1000110000 2
b1000110000 :
b1000110000 V
b1000101100 *
b1000101100 T
b1000101100 W
1!
14
#14050
0!
04
#14100
b1000110000 ;
b1000110100 2
b1000110100 :
b1000110100 V
b1000110000 *
b1000110000 T
b1000110000 W
1!
14
#14150
0!
04
#14200
b1000110100 ;
b1000111000 2
b1000111000 :
b1000111000 V
b1000110100 *
b1000110100 T
b1000110100 W
1!
14
#14250
0!
04
#14300
b1000111000 ;
b1000111100 2
b1000111100 :
b1000111100 V
b1000111000 *
b1000111000 T
b1000111000 W
1!
14
#14350
0!
04
#14400
b1000111100 ;
b1001000000 2
b1001000000 :
b1001000000 V
b1000111100 *
b1000111100 T
b1000111100 W
1!
14
#14450
0!
04
#14500
b1001000000 ;
b1001000100 2
b1001000100 :
b1001000100 V
b1001000000 *
b1001000000 T
b1001000000 W
1!
14
#14550
0!
04
#14600
b1001000100 ;
b1001001000 2
b1001001000 :
b1001001000 V
b1001000100 *
b1001000100 T
b1001000100 W
1!
14
#14650
0!
04
#14700
b1001001000 ;
b1001001100 2
b1001001100 :
b1001001100 V
b1001001000 *
b1001001000 T
b1001001000 W
1!
14
#14750
0!
04
#14800
b1001001100 ;
b1001010000 2
b1001010000 :
b1001010000 V
b1001001100 *
b1001001100 T
b1001001100 W
1!
14
#14850
0!
04
#14900
b1001010000 ;
b1001010100 2
b1001010100 :
b1001010100 V
b1001010000 *
b1001010000 T
b1001010000 W
1!
14
#14950
0!
04
#15000
b1001010100 ;
b1001011000 2
b1001011000 :
b1001011000 V
b1001010100 *
b1001010100 T
b1001010100 W
1!
14
#15050
0!
04
#15100
b1001011000 ;
b1001011100 2
b1001011100 :
b1001011100 V
b1001011000 *
b1001011000 T
b1001011000 W
1!
14
#15150
0!
04
#15200
b1001011100 ;
b1001100000 2
b1001100000 :
b1001100000 V
b1001011100 *
b1001011100 T
b1001011100 W
1!
14
#15250
0!
04
#15300
b1001100000 ;
b1001100100 2
b1001100100 :
b1001100100 V
b1001100000 *
b1001100000 T
b1001100000 W
1!
14
#15350
0!
04
#15400
b1001100100 ;
b1001101000 2
b1001101000 :
b1001101000 V
b1001100100 *
b1001100100 T
b1001100100 W
1!
14
#15450
0!
04
#15500
b1001101000 ;
b1001101100 2
b1001101100 :
b1001101100 V
b1001101000 *
b1001101000 T
b1001101000 W
1!
14
#15550
0!
04
#15600
b1001101100 ;
b1001110000 2
b1001110000 :
b1001110000 V
b1001101100 *
b1001101100 T
b1001101100 W
1!
14
#15650
0!
04
#15700
b1001110000 ;
b1001110100 2
b1001110100 :
b1001110100 V
b1001110000 *
b1001110000 T
b1001110000 W
1!
14
#15750
0!
04
#15800
b1001110100 ;
b1001111000 2
b1001111000 :
b1001111000 V
b1001110100 *
b1001110100 T
b1001110100 W
1!
14
#15850
0!
04
#15900
b1001111000 ;
b1001111100 2
b1001111100 :
b1001111100 V
b1001111000 *
b1001111000 T
b1001111000 W
1!
14
#15950
0!
04
#16000
b1001111100 ;
b1010000000 2
b1010000000 :
b1010000000 V
b1001111100 *
b1001111100 T
b1001111100 W
1!
14
#16050
0!
04
#16100
b1010000000 ;
b1010000100 2
b1010000100 :
b1010000100 V
b1010000000 *
b1010000000 T
b1010000000 W
1!
14
#16150
0!
04
#16200
b1010000100 ;
b1010001000 2
b1010001000 :
b1010001000 V
b1010000100 *
b1010000100 T
b1010000100 W
1!
14
#16250
0!
04
#16300
b1010001000 ;
b1010001100 2
b1010001100 :
b1010001100 V
b1010001000 *
b1010001000 T
b1010001000 W
1!
14
#16350
0!
04
#16400
b1010001100 ;
b1010010000 2
b1010010000 :
b1010010000 V
b1010001100 *
b1010001100 T
b1010001100 W
1!
14
#16450
0!
04
#16500
b1010010000 ;
b1010010100 2
b1010010100 :
b1010010100 V
b1010010000 *
b1010010000 T
b1010010000 W
1!
14
#16550
0!
04
